A03 Working with Data in the Tidyverse - MonaJzn - Fundamentals of Analytics
…
What are the three most common first names of customers?

lego %>%
  count(first_name, sort = TRUE)

## # A tibble: 211 x 2
##    first_name     n
##    <chr>      <int>
##  1 Jackson       13
##  2 Jacob         11
##  3 Joseph        11
##  4 Michael       10
##  5 Audrey         8
##  6 Connor         8
##  7 Kaitlyn        8
##  8 Lucas          8
##  9 Amanda         7
## 10 Joshua         7
## # ... with 201 more rows

Jackson, Jacob, and Joseph are the three most common first names.

What are the three most common themes of lego sets purchased?

lego %>%
  count(theme, sort = TRUE)

## # A tibble: 25 x 2
##    theme            n
##    <chr>        <int>
##  1 Star Wars       75
##  2 Nexo Knights    64
##  3 Gear            55
##  4 Mixels          55
##  5 City            45
##  6 Friends         42
##  7 Ninjago         38
##  8 Duplo           35
##  9 Bionicle        34
## 10 Creator         25
## # ... with 15 more rows

Star Wars, Nexo Knights, and Gear are the three most common themes.

Among the most common theme of lego sets purchased, what is the most common subtheme?

lego %>%
  filter(theme == "Star Wars" | theme == "Nexo Knights" | theme == "Gear") %>%
  count(subtheme, sort = TRUE)

## # A tibble: 27 x 2
##    subtheme              n
##    <chr>             <int>
##  1 <NA>                 42
##  2 Ultimate             22
##  3 The Force Awakens    15
##  4 Buildable Figures    11
##  5 Episode V            10
##  6 MicroFighters        10
##  7 Battlefront           7
##  8 Original Content      7
##  9 Role-Play toys        7
## 10 Stationery            7
## # ... with 17 more rows

Ultimate is the most common subtheme among the most common theme of lego sets.

Create a new variable called age_group and group the ages into the following categories: “18 and under”, “19 - 25”, “26 - 35”, “36 - 50”, “51 and over”. Be sure to save the updated data set so you can use the new variable in other questions.

lego_age <- lego %>%
  mutate(age_group = case_when(between(age, 1, 18) ~ "18 and under", between(age, 19, 25) ~ "19 - 25", between(age, 26, 35) ~ "26 - 35", between(age, 36, 50) ~ "36 - 50", between(age, 51, 68) ~ "51 and over"))
age <- lego_age %>%
  select(first_name, last_name, age_group)
age

## # A tibble: 620 x 3
##    first_name last_name      age_group
##    <chr>      <chr>          <chr>    
##  1 Kimberly   Beckstead      19 - 25  
##  2 Neel       Garvin         26 - 35  
##  3 Neel       Garvin         26 - 35  
##  4 Chelsea    Bouchard       36 - 50  
##  5 Chelsea    Bouchard       36 - 50  
##  6 Chelsea    Bouchard       36 - 50  
##  7 Bryanna    Welsh          19 - 25  
##  8 Bryanna    Welsh          19 - 25  
##  9 Caleb      Garcia-Wideman 36 - 50  
## 10 Caleb      Garcia-Wideman 36 - 50  
## # ... with 610 more rows
…
Age group “36 - 50” has purchased the largest number of lego sets which is 313.

Which age group has spent the most money on legos? How much did they spend?

lego_age_spend <- lego_age %>%
  mutate(spend = us_price * quantity) %>%
  arrange(desc(spend))
lego_age_spend

## # A tibble: 620 x 16
##    first_name last_name    age phone_number set_id number theme  subtheme   year
##    <chr>      <chr>      <dbl> <chr>         <dbl> <chr>  <chr>  <chr>     <dbl>
##  1 Jennifer   Dana          26 956-555-9719  25597 75827  Ghost~ <NA>       2018
##  2 Cecilia    Mauro         50 <NA>          25921 75157  Star ~ Rebels     2018
##  3 Kaitlyn    Degeer        24 316-555-7890  24994 10251  Advan~ Modular ~  2018
##  4 Elias      Garrett       50 832-555-9165  24915 60130  City   Police     2018
##  5 Hector     Collins       20 340-555-2508  24627 75098  Star ~ Ultimate~  2018
##  6 Nerea      Feldman       28 423-555-9631  25921 75157  Star ~ Rebels     2018
##  7 Carolyn    Quarry        23 567-555-7649  25627 70596  Ninja~ Rise of ~  2018
##  8 Cody       Gonzales      44 973-555-3236  25922 75149  Star ~ The Forc~  2018
##  9 Caleb      Garcia-Wi~    37 907-555-9236  25611 21127  Minec~ Minifig-~  2018
## 10 Melanie    Rollert       43 <NA>          26026 41179  Elves  <NA>       2018
## # ... with 610 more rows, and 7 more variables: name <chr>, pieces <dbl>,
## #   us_price <dbl>, image_url <chr>, quantity <dbl>, age_group <chr>,
## #   spend <dbl>
…
