…
## # A tibble: 5 x 5
##   term        estimate std.error statistic  p.value
##   <chr>          <dbl>     <dbl>     <dbl>    <dbl>
## 1 (Intercept)    2432.      250.      9.74 2.00e-20
## 2 SymmetryG      -538.      266.     -2.02 4.36e- 2
## 3 SymmetryI       615.      569.      1.08 2.80e- 1
## 4 SymmetryV      -967.      262.     -3.69 2.53e- 4
## 5 SymmetryX      -673.      297.     -2.27 2.38e- 2

Multiple Regression Model

In the previous section, we found that most of the variables coefficients are not significant. Therefore, we are going to investigate the multiple regression model to estimate the price of diamond ring precisely. The estimated price of the diamond ring is $2959.7 that is a little lower than $3100.

## # A tibble: 35 x 5
##    term        estimate std.error statistic  p.value
##    <chr>          <dbl>     <dbl>     <dbl>    <dbl>
##  1 (Intercept)   1902.     663.      2.87   4.39e- 3
##  2 Carat           22.8      1.81   12.6    3.33e-30
##  3 ColourE       -237.     204.     -1.16   2.47e- 1
##  4 ColourF       -281.     203.     -1.38   1.68e- 1
##  5 ColourG         10.9    206.      0.0530 9.58e- 1
##  6 ColourH       -417.     202.     -2.06   3.99e- 2
##  7 ColourI       -381.     203.     -1.88   6.13e- 2
##  8 ColourJ       -295.     209.     -1.41   1.59e- 1
##  9 ColourK        114.     239.      0.477  6.34e- 1
## 10 ColourL       -227.     304.     -0.747  4.55e- 1
## # ... with 25 more rows
…
